<?xml version="1.0" encoding="utf-8"?>
<!-- Generator: Adobe Illustrator 21.0.2, SVG Export Plug-In . SVG Version: 6.00 Build 0)  -->
<svg version="1.1"
	 id="SVGRoot" inkscape:export-filename="C:\Users\micha\OneDrive\2ii\Icons\Technologies\coalcap.png" inkscape:export-xdpi="99.447792" inkscape:export-ydpi="99.447792" inkscape:version="0.92.3 (2405546, 2018-03-11)" sodipodi:docname="coalcap.svg" xmlns:cc="http://creativecommons.org/ns#" xmlns:dc="http://purl.org/dc/elements/1.1/" xmlns:inkscape="http://www.inkscape.org/namespaces/inkscape" xmlns:rdf="http://www.w3.org/1999/02/22-rdf-syntax-ns#" xmlns:sodipodi="http://sodipodi.sourceforge.net/DTD/sodipodi-0.dtd" xmlns:svg="http://www.w3.org/2000/svg"
	 xmlns="http://www.w3.org/2000/svg" xmlns:xlink="http://www.w3.org/1999/xlink" x="0px" y="0px" viewBox="0 0 512 512"
	 style="enable-background:new 0 0 512 512;" xml:space="preserve">
<style type="text/css">
	.st0{fill:#F76261;}
	.st1{opacity:0.8;}
	.st2{opacity:0.541;fill:#F76261;enable-background:new    ;}
	.st3{fill:none;stroke:#FFFFFF;stroke-width:1.1437;stroke-opacity:0;}
	.st4{fill:#F76261;stroke:#FFFFFF;stroke-width:5;}
</style>
<sodipodi:namedview  bordercolor="#666666" borderopacity="1.0" id="base" inkscape:current-layer="g15954" inkscape:cx="-191" inkscape:cy="256" inkscape:document-units="px" inkscape:pagecheckerboard="true" inkscape:pageopacity="0.0" inkscape:pageshadow="2" inkscape:window-height="1875" inkscape:window-maximized="1" inkscape:window-width="3000" inkscape:window-x="-13" inkscape:window-y="-13" inkscape:zoom="1" pagecolor="#ffffff" showgrid="false">
	</sodipodi:namedview>
<path id="circle14943-4" inkscape:connector-curvature="0" class="st0" d="M144.8,321c-29.6,0-53.6,24-53.6,53.6
	c0,29.6,24,53.6,53.6,53.6c29.6,0,53.6-24,53.6-53.6C198.3,345,174.3,321,144.8,321z M144.9,338.7c20.3,0,36.8,16.5,36.8,36.8
	c0,20.3-16.5,36.8-36.8,36.8c0,0,0,0,0,0c-20.3,0-36.8-16.5-36.8-36.8c0,0,0,0,0,0C108.1,355.2,124.6,338.7,144.9,338.7z"/>
<path id="circle14943-45" inkscape:connector-curvature="0" class="st0" d="M329.6,318.9c-29.6,0-53.6,24-53.6,53.6
	c0,29.6,24,53.6,53.6,53.6c29.6,0,53.6-24,53.6-53.6C383.2,342.9,359.2,318.9,329.6,318.9z M329.2,335.8c20.3,0,36.8,16.5,36.8,36.8
	c0,20.3-16.5,36.8-36.8,36.8c0,0,0,0,0,0c-20.3,0-36.8-16.5-36.8-36.8c0,0,0,0,0,0C292.4,352.3,308.9,335.8,329.2,335.8z"/>
<g id="g15789" transform="translate(496.49485,-18.556999)" class="st1">
	<path id="circle14911-0" inkscape:connector-curvature="0" class="st0" d="M-170.3,95.3c-17.8,0-34.1,9.8-42.5,25.6
		c-6.8-3.5-14.3-5.3-22-5.4c-14.6,0-28.3,6.6-37.4,18c-6.7-19.3-24.9-32.3-45.4-32.3c-17.8,0-34.1,9.8-42.5,25.6
		c-6.8-3.5-14.3-5.3-22-5.4c-20.9,0-39.4,13.5-45.8,33.4c-2.9-1-6-1.5-9-1.5c-4.9,0-9.8,1.3-14,3.8H-74
		c-3.2-19.3-19.9-33.5-39.5-33.5c-4.1,0-8.2,0.7-12.2,1.9C-133,107.2-150.6,95.3-170.3,95.3z"/>
</g>
<g id="g15874" transform="translate(-644.30611,-115.82169)">
	<path id="polygon14933-14" inkscape:connector-curvature="0" class="st0" d="M681.4,276.5l32.5,209.7h22.2
		c2.2-27.9,25.4-49.3,53.3-49.4c27.9,0,51.2,21.5,53.4,49.4h78c1.1-28.7,24.7-51.5,53.5-51.5c28.8,0,52.4,22.7,53.5,51.5h22.7
		l31.8-209.7H681.4z"/>
	<path id="polygon14933-0-7" inkscape:connector-curvature="0" sodipodi:nodetypes="cccccccccccccccccccccccccc" class="st2" d="
		M672.8,270l34.6,223.7h28.2c-0.2-1.6-0.3-3.3-0.3-4.9c0-0.8,0.1-1.7,0.1-2.5h-21.6l-32.5-209.7h400.8l-31.8,209.7h-22.7
		c-0.1-2.2-0.3-4.4-0.7-6.5h-0.9c0.6,3.1,0.8,6.3,0.9,9.4c0,1.5-0.1,3-0.2,4.6h29.2l33.9-223.7H672.8z M920.1,486.2h-77.3
		c-0.2-2.2-0.5-4.4-1-6.5h-0.2c0.5,3,0.8,6,0.8,9.1c0,1.6-0.1,3.3-0.2,4.9h77.9c-0.1-1.5-0.2-3-0.2-4.6
		C919.9,488.2,920,487.2,920.1,486.2z"/>
</g>
<path id="polygon14937-4" inkscape:connector-curvature="0" sodipodi:nodetypes="ccccccccc" class="st0" d="M12.9,138.4l7.2,31.6
	h10.8l-2.5-15.9h417.1l-2.4,15.9h10.2l7.2-31.6L12.9,138.4z"/>
<rect id="rect842" x="0.5" y="-0.5" class="st3" width="512" height="512"/>
<g id="g10040" transform="matrix(0.3550018,0,0,0.3550018,369.01795,318.8453)">
	<g id="g4869" transform="matrix(0.9,0,0,0.9,25.886701,51.724935)">
		<g id="g4867">
			<path id="path4865" inkscape:connector-curvature="0" class="st4" d="M400.3,175.6c-1.4-3-4.4-4.9-7.7-4.9H291.4l99.8-157.6
				c1.7-2.6,1.8-6,0.3-8.7C390,1.7,387.1,0,384,0H247.5c-3.2,0-6.2,1.8-7.6,4.7l-128,256c-1.3,2.6-1.2,5.8,0.4,8.3
				c1.6,2.5,4.3,4.1,7.3,4.1h87.7l-95.6,227.1c-1.6,3.9-0.2,8.4,3.4,10.6c1.4,0.8,2.9,1.3,4.4,1.3c2.4,0,4.9-1,6.5-3l273.1-324.3
				C401.2,182.2,401.7,178.6,400.3,175.6z"/>
		</g>
	</g>
</g>
</svg>
