<?xml version="1.0" encoding="utf-8"?>
<!-- Generator: Adobe Illustrator 21.0.2, SVG Export Plug-In . SVG Version: 6.00 Build 0)  -->
<svg version="1.1"
	 id="Capa_1" inkscape:export-filename="C:\Users\micha\OneDrive\2ii\Icons\Technologies\electric.png" inkscape:export-xdpi="97.285851" inkscape:export-ydpi="97.285851" inkscape:version="0.92.3 (2405546, 2018-03-11)" sodipodi:docname="AutomotiveElec.svg" xmlns:cc="http://creativecommons.org/ns#" xmlns:dc="http://purl.org/dc/elements/1.1/" xmlns:inkscape="http://www.inkscape.org/namespaces/inkscape" xmlns:rdf="http://www.w3.org/1999/02/22-rdf-syntax-ns#" xmlns:sodipodi="http://sodipodi.sourceforge.net/DTD/sodipodi-0.dtd" xmlns:svg="http://www.w3.org/2000/svg"
	 xmlns="http://www.w3.org/2000/svg" xmlns:xlink="http://www.w3.org/1999/xlink" x="0px" y="0px" viewBox="0 0 512 512"
	 style="enable-background:new 0 0 512 512;" xml:space="preserve">
<style type="text/css">
	.st0{fill:#DDDDDD;}
	.st1{opacity:0.475;}
	.st2{fill:#FFFFFF;stroke:#FFFFFF;stroke-width:5;}
</style>
<sodipodi:namedview  bordercolor="#666666" borderopacity="1" gridtolerance="10" guidetolerance="10" id="namedview26061" inkscape:current-layer="g26026" inkscape:cx="-181.45841" inkscape:cy="242.92281" inkscape:pagecheckerboard="true" inkscape:pageopacity="0" inkscape:pageshadow="2" inkscape:window-height="2066" inkscape:window-maximized="1" inkscape:window-width="3840" inkscape:window-x="-11" inkscape:window-y="-11" inkscape:zoom="2.0101873" objecttolerance="10" pagecolor="#ffffff" showgrid="false">
	</sodipodi:namedview>
<g id="g26026" transform="matrix(-1.5215037,0,0,1.5215037,508.88116,-11.030326)">
	
		<path id="path26020" inkscape:connector-curvature="0" sodipodi:nodetypes="ccsccccccsccccccccccccsccccsssccccccsscsccccc" class="st0" d="
		M327.1,159.4c-0.5-5.6-1-12-2-17.5c-0.7-3.8-2.3-9-7.5-9c-0.5,0-1.1,0.1-1.6,0.1c-0.3,0-0.7,0.1-1.2,0.1c0,0-0.2-0.2-0.4-0.8
		c-3.5-4.4-8-9.9-16.4-16.7c-2.1-1.7-4.5-3.6-5.6-4.7c0.4-2.7,0.3-5.9-1.5-8.2c-0.9-1-2.5-2.3-5.3-2.3c-0.4,0-0.8,0-1.8,0.1
		c-2-0.9-6-0.8-11.6-2c-14.4-3-41.1-8.4-81.3-9.3c-58.4-1.2-104.4,41-106.3,42.8l-1.4,1.3c-2.4,1.2-10,3.9-33.1,8.5
		c-32.9,6.5-39.1,16.9-40.3,21c-2.6,2-6.9,6.6-7.5,12.1c-0.5,4.4-1.8,6.2-1.8,6.2L0,181.9v30.9l0.1,0.6c1.8,8.2,10.3,12.6,24.6,12.6
		c4.6,0,8-0.5,7.9-0.5c0.2,0,2,0,5-0.1c-0.3-0.9-0.6-1.7-0.8-2.6c-0.2-0.9-0.5-1.7-0.6-2.6c-0.4-2.1-0.6-4.3-0.6-6.5
		c0-19,15.5-34.5,34.5-34.5s34.5,15.5,34.5,34.5c0,1.7-0.2,3.4-0.4,5c-0.1,0.9-0.3,1.8-0.5,2.7c-0.2,0.9-0.4,1.8-0.7,2.7
		c43-0.9,97.8-2.1,140.2-3.2c-0.2-0.9-0.3-1.8-0.4-2.6c-0.1-0.9-0.2-1.8-0.2-2.6c0-0.6-0.1-1.2-0.1-1.9c0-19,15.5-34.5,34.5-34.5
		c18.7,0,34,15,34.4,33.7c0,0.3,0,0.5,0,0.8c0,0.7-0.1,1.3-0.1,2c-0.1,0.9-0.1,1.9-0.3,2.8c8.1-1.3,14.2-5.6,17.7-12.5
		c6-11.8,3-27.8,0.8-31.2C328.2,172.9,327.6,165.7,327.1,159.4L327.1,159.4z"/>
	<path id="path26022" inkscape:connector-curvature="0" class="st0" d="M43.2,225.2c4.5,10.3,14.8,17.5,26.7,17.5
		c12.4,0,23-7.8,27.2-18.7c0.3-0.9,0.6-1.8,0.9-2.7c0.2-0.9,0.4-1.8,0.6-2.7c0.3-1.7,0.5-3.4,0.5-5.2c0-16.1-13.1-29.2-29.2-29.2
		s-29.2,13.1-29.2,29.2c0,2.2,0.3,4.3,0.7,6.4c0.2,0.9,0.4,1.8,0.7,2.6C42.5,223.5,42.8,224.4,43.2,225.2z"/>
	<path id="path26024" inkscape:connector-curvature="0" class="st0" d="M248.4,220.6c3.1,12.7,14.6,22.1,28.3,22.1
		c14.3,0,26.2-10.3,28.7-23.9c0.2-0.9,0.3-1.8,0.4-2.7c0.1-0.9,0.1-1.7,0.1-2.6c0,0,0,0,0-0.1c0-16.1-13.1-29.1-29.2-29.1
		c-16.1,0-29.2,13.1-29.2,29.2c0,0.6,0.1,1.2,0.1,1.7c0.1,0.9,0.1,1.8,0.3,2.6C248.1,218.9,248.2,219.8,248.4,220.6L248.4,220.6z"/>
</g>
<g id="g26030" transform="translate(0,179.93701)">
</g>
<g id="g26032" transform="translate(0,179.93701)">
</g>
<g id="g26034" transform="translate(0,179.93701)">
</g>
<g id="g26036" transform="translate(0,179.93701)">
</g>
<g id="g26038" transform="translate(0,179.93701)">
</g>
<g id="g26040" transform="translate(0,179.93701)">
</g>
<g id="g26042" transform="translate(0,179.93701)">
</g>
<g id="g26044" transform="translate(0,179.93701)">
</g>
<g id="g26046" transform="translate(0,179.93701)">
</g>
<g id="g26048" transform="translate(0,179.93701)">
</g>
<g id="g26050" transform="translate(0,179.93701)">
</g>
<g id="g26052" transform="translate(0,179.93701)">
</g>
<g id="g26054" transform="translate(0,179.93701)">
</g>
<g id="g26056" transform="translate(0,179.93701)">
</g>
<g id="g26058" transform="translate(0,179.93701)">
</g>
<g id="g10040" transform="matrix(0.28753554,0,0,0.29248256,153.88061,159.44844)">
	<g id="g4869" transform="translate(-0.51307786,-0.54237293)" class="st1">
		<g id="g4867">
			<path id="path4865" inkscape:connector-curvature="0" class="st2" d="M400.3,175.6c-1.4-3-4.4-4.9-7.7-4.9H291.4l99.8-157.6
				c1.7-2.6,1.8-6,0.3-8.7C390,1.7,387.1,0,384,0H247.5c-3.2,0-6.2,1.8-7.6,4.7l-128,256c-1.3,2.6-1.2,5.8,0.4,8.3
				c1.6,2.5,4.3,4.1,7.3,4.1h87.7l-95.6,227.1c-1.6,3.9-0.2,8.4,3.4,10.6c1.4,0.8,2.9,1.3,4.4,1.3c2.4,0,4.9-1,6.5-3l273.1-324.3
				C401.2,182.2,401.7,178.6,400.3,175.6z"/>
		</g>
	</g>
</g>
</svg>
