<?xml version="1.0" encoding="utf-8"?>
<!-- Generator: Adobe Illustrator 21.0.2, SVG Export Plug-In . SVG Version: 6.00 Build 0)  -->
<svg version="1.1"
	 id="Capa_1" inkscape:export-filename="C:\Users\micha\OneDrive\2ii\Icons\Technologies\Gas.png" inkscape:export-xdpi="95.812866" inkscape:export-ydpi="95.812866" inkscape:version="0.92.3 (2405546, 2018-03-11)" sodipodi:docname="gascap.svg" xmlns:cc="http://creativecommons.org/ns#" xmlns:dc="http://purl.org/dc/elements/1.1/" xmlns:inkscape="http://www.inkscape.org/namespaces/inkscape" xmlns:rdf="http://www.w3.org/1999/02/22-rdf-syntax-ns#" xmlns:sodipodi="http://sodipodi.sourceforge.net/DTD/sodipodi-0.dtd" xmlns:svg="http://www.w3.org/2000/svg"
	 xmlns="http://www.w3.org/2000/svg" xmlns:xlink="http://www.w3.org/1999/xlink" x="0px" y="0px" viewBox="0 0 512 512"
	 style="enable-background:new 0 0 512 512;" xml:space="preserve">
<style type="text/css">
	.st0{fill:none;stroke:#FFFFFF;stroke-width:2.8169;stroke-opacity:0;}
	.st1{fill:#7DE7B8;}
</style>
<sodipodi:namedview  bordercolor="#666666" borderopacity="1" gridtolerance="10" guidetolerance="10" id="namedview14730" inkscape:current-layer="Capa_1" inkscape:cx="173.27078" inkscape:cy="109.86431" inkscape:pagecheckerboard="true" inkscape:pageopacity="0" inkscape:pageshadow="2" inkscape:window-height="1875" inkscape:window-maximized="1" inkscape:window-width="3000" inkscape:window-x="-13" inkscape:window-y="-13" inkscape:zoom="1.5424861" objecttolerance="10" pagecolor="#ffffff" showgrid="false">
	</sodipodi:namedview>
<g id="g14699" transform="translate(0,-99.999023)">
</g>
<g id="g14701" transform="translate(0,-99.999023)">
</g>
<g id="g14703" transform="translate(0,-99.999023)">
</g>
<g id="g14705" transform="translate(0,-99.999023)">
</g>
<g id="g14707" transform="translate(0,-99.999023)">
</g>
<g id="g14709" transform="translate(0,-99.999023)">
</g>
<g id="g14711" transform="translate(0,-99.999023)">
</g>
<g id="g14713" transform="translate(0,-99.999023)">
</g>
<g id="g14715" transform="translate(0,-99.999023)">
</g>
<g id="g14717" transform="translate(0,-99.999023)">
</g>
<g id="g14719" transform="translate(0,-99.999023)">
</g>
<g id="g14721" transform="translate(0,-99.999023)">
</g>
<g id="g14723" transform="translate(0,-99.999023)">
</g>
<g id="g14725" transform="translate(0,-99.999023)">
</g>
<g id="g14727" transform="translate(0,-99.999023)">
</g>
<g id="g10040" transform="matrix(0.3550018,0,0,0.3550018,365.63895,325.10918)">
	<rect id="rect842" x="-1028.6" y="-917.2" class="st0" width="1442.2" height="1442.2"/>
</g>
<g>
	<path class="st1" d="M186.3,493c-0.7-0.2-1.4-0.4-2.1-0.6C184.9,492.7,185.6,492.9,186.3,493z"/>
	<path class="st1" d="M325.2,491.6c-0.4,0.2-0.9,0.3-1.3,0.5C324.3,491.9,324.8,491.8,325.2,491.6z"/>
	<path class="st1" d="M394,264.8c-16.5-51.3-36.8-75.2-48.6-85.5c-3.5-3.1-9-0.3-8.7,4.3c3.4,55.3-17.4,69.4-29.2,37.7
		c-4.7-12.6-7.5-34.5-7.5-61.1c0-44.3-12.9-89.9-41.2-127c-7.4-9.6-16-18.7-25.9-26.3c-3.6-2.8-8.8,0-8.4,4.5
		c2.2,30,0.2,116.2-75.3,219c-68.5,95.4-42,168.7-32.5,188.6c18,38,43.1,60.4,67.7,73.4c0.7,0.2,1.4,0.4,2.1,0.6
		c4,0.3,7.3-4.2,4.8-8.1c-15.8-24.6-15.5-67.1-6.9-119.4c39.8-89,64-135,64-135s8.8,24.1,43.7,71.9c33.6,46,56.1,133.6,26.4,181.8
		c-2.5,4.1,1.3,8.9,5.5,7.9c0.4-0.2,0.9-0.3,1.3-0.5c36.7-18.8,77.9-56.4,82.5-131.4C409.4,337.3,406.9,305.2,394,264.8z"/>
</g>
</svg>
