<?xml version="1.0" encoding="utf-8"?>
<!-- Generator: Adobe Illustrator 21.0.2, SVG Export Plug-In . SVG Version: 6.00 Build 0)  -->
<svg version="1.1"
	 id="Capa_1" inkscape:export-filename="C:\Users\micha\OneDrive\2ii\Icons\GasProduction.png" inkscape:export-xdpi="108.478" inkscape:export-ydpi="108.478" inkscape:version="0.92.3 (2405546, 2018-03-11)" sodipodi:docname="GasPower.svg" xmlns:cc="http://creativecommons.org/ns#" xmlns:dc="http://purl.org/dc/elements/1.1/" xmlns:inkscape="http://www.inkscape.org/namespaces/inkscape" xmlns:rdf="http://www.w3.org/1999/02/22-rdf-syntax-ns#" xmlns:sodipodi="http://sodipodi.sourceforge.net/DTD/sodipodi-0.dtd" xmlns:svg="http://www.w3.org/2000/svg"
	 xmlns="http://www.w3.org/2000/svg" xmlns:xlink="http://www.w3.org/1999/xlink" x="0px" y="0px" viewBox="0 0 512 512"
	 style="enable-background:new 0 0 512 512;" xml:space="preserve">
<style type="text/css">
	.st0{fill:#7DE7B8;stroke:#FFFFFF;stroke-width:5;}
	.st1{fill:#F76261;}
	.st2{fill:#7DE7B8;}
</style>
<sodipodi:namedview  bordercolor="#666666" borderopacity="1" gridtolerance="10" guidetolerance="10" id="namedview14730" inkscape:current-layer="Capa_1" inkscape:cx="72.45949" inkscape:cy="109.86431" inkscape:pagecheckerboard="true" inkscape:pageopacity="0" inkscape:pageshadow="2" inkscape:window-height="2066" inkscape:window-maximized="1" inkscape:window-width="3840" inkscape:window-x="-11" inkscape:window-y="-11" inkscape:zoom="1.5424861" objecttolerance="10" pagecolor="#ffffff" showgrid="false">
	</sodipodi:namedview>
<g id="g14699" transform="translate(0,-99.999023)">
</g>
<g id="g14701" transform="translate(0,-99.999023)">
</g>
<g id="g14703" transform="translate(0,-99.999023)">
</g>
<g id="g14705" transform="translate(0,-99.999023)">
</g>
<g id="g14707" transform="translate(0,-99.999023)">
</g>
<g id="g14709" transform="translate(0,-99.999023)">
</g>
<g id="g14711" transform="translate(0,-99.999023)">
</g>
<g id="g14713" transform="translate(0,-99.999023)">
</g>
<g id="g14715" transform="translate(0,-99.999023)">
</g>
<g id="g14717" transform="translate(0,-99.999023)">
</g>
<g id="g14719" transform="translate(0,-99.999023)">
</g>
<g id="g14721" transform="translate(0,-99.999023)">
</g>
<g id="g14723" transform="translate(0,-99.999023)">
</g>
<g id="g14725" transform="translate(0,-99.999023)">
</g>
<g id="g14727" transform="translate(0,-99.999023)">
</g>
<path class="st0" d="M507.6,387.3c-0.5-1.1-1.6-1.8-2.7-1.8h-35.9l35.4-55.9c0.6-0.9,0.6-2.1,0.1-3.1c-0.5-1-1.6-1.6-2.7-1.6h-48.5
	c-1.1,0-2.2,0.6-2.7,1.7l-45.4,90.9c-0.5,0.9-0.4,2.1,0.1,2.9c0.6,0.9,1.5,1.4,2.6,1.4H439l-33.9,80.6c-0.6,1.4-0.1,3,1.2,3.8
	c0.5,0.3,1,0.4,1.6,0.4c0.9,0,1.7-0.4,2.3-1.1l96.9-115.1C507.9,389.6,508,388.3,507.6,387.3z"/>
<g>
	<path class="st1" d="M152.7,495.6c-0.7-0.2-1.4-0.4-2.1-0.6C151.4,495.3,152.1,495.5,152.7,495.6z"/>
	<path class="st1" d="M370.8,389.2c-0.8,4.1-1.8,8.1-2.8,12C369,397.3,369.9,393.3,370.8,389.2z"/>
	<path class="st1" d="M367.9,401.1c-6.9,25-18.5,44.5-32.1,59.6C349.5,445.6,361.1,426.2,367.9,401.1z"/>
	<path class="st1" d="M291.6,494.2c-0.4,0.2-0.9,0.3-1.3,0.5C290.7,494.5,291.2,494.4,291.6,494.2c14.9-7.6,30.6-18.4,44.2-33.5
		C322.2,475.8,306.5,486.5,291.6,494.2z"/>
	<path class="st2" d="M360.4,267.4c-16.5-51.3-36.8-75.2-48.6-85.5c-3.5-3.1-9-0.3-8.7,4.3c3.4,55.3-17.4,69.4-29.2,37.7
		c-4.7-12.6-7.5-34.5-7.5-61.1c0-44.3-12.9-89.9-41.2-127c-7.4-9.6-16-18.7-25.9-26.3c-3.6-2.8-8.8,0-8.4,4.5
		c2.2,30,0.2,116.2-75.3,219c-68.5,95.4-42,168.7-32.5,188.6c18,38,43.1,60.4,67.7,73.4v0c0.7,0.2,1.4,0.4,2.1,0.6
		c4,0.3,7.3-4.2,4.8-8.1c-15.8-24.6-15.5-67.1-6.9-119.4c39.8-89,64-135,64-135s8.8,24.1,43.7,71.9c33.6,46,56.1,133.6,26.4,181.8
		c-2.5,4.1,1.3,8.9,5.5,7.9c0.4-0.2,0.9-0.3,1.3-0.5c14.9-7.6,30.6-18.4,44.2-33.5s25.3-34.5,32.1-59.6c1.1-3.9,2-7.8,2.8-12
		c1.6-8.2,2.8-17,3.4-26.4C375.9,339.9,373.3,307.8,360.4,267.4z"/>
</g>
</svg>
