<?xml version="1.0" encoding="utf-8"?>
<!-- Generator: Adobe Illustrator 21.0.2, SVG Export Plug-In . SVG Version: 6.00 Build 0)  -->
<svg version="1.1"
	 id="Capa_1" inkscape:export-filename="C:\Users\micha\OneDrive\2ii\Icons\Technologies\hydrocap.png" inkscape:export-xdpi="95.812866" inkscape:export-ydpi="95.812866" inkscape:version="0.92.3 (2405546, 2018-03-11)" sodipodi:docname="hydrocap.svg" xmlns:cc="http://creativecommons.org/ns#" xmlns:dc="http://purl.org/dc/elements/1.1/" xmlns:inkscape="http://www.inkscape.org/namespaces/inkscape" xmlns:rdf="http://www.w3.org/1999/02/22-rdf-syntax-ns#" xmlns:sodipodi="http://sodipodi.sourceforge.net/DTD/sodipodi-0.dtd" xmlns:svg="http://www.w3.org/2000/svg"
	 xmlns="http://www.w3.org/2000/svg" xmlns:xlink="http://www.w3.org/1999/xlink" x="0px" y="0px" viewBox="0 0 512 512"
	 style="enable-background:new 0 0 512 512;" xml:space="preserve">
<style type="text/css">
	.st0{fill:#E1E1E1;}
	.st1{fill:#F76261;stroke:#FFFFFF;stroke-width:5;}
	.st2{opacity:0.572;}
	.st3{fill:#F76261;stroke:#FFFFFF;stroke-width:1.2661;}
	.st4{fill:none;stroke:#FFFFFF;stroke-width:0.2532;stroke-opacity:0;}
</style>
<sodipodi:namedview  bordercolor="#666666" borderopacity="1" gridtolerance="10" guidetolerance="10" id="namedview12415" inkscape:current-layer="Capa_1" inkscape:cx="16.604602" inkscape:cy="-5.2218682" inkscape:pagecheckerboard="true" inkscape:pageopacity="0" inkscape:pageshadow="2" inkscape:window-height="1875" inkscape:window-maximized="1" inkscape:window-width="3000" inkscape:window-x="-13" inkscape:window-y="-13" inkscape:zoom="1.2291667" objecttolerance="10" pagecolor="#ffffff" showgrid="false">
	</sodipodi:namedview>
<g id="g12382" transform="matrix(3.9491449,0,0,3.9491449,-44.304931,129.11938)">
	<path id="path12380" inkscape:connector-curvature="0" class="st0" d="M84.4-30.3c-0.5,0-0.9,0.3-1,0.8
		C79.6,0.8,62.6,10.6,57.7,28.1C53.8,21,50.5,12.4,49,0.8c-0.1-1.1-1.9-1.1-2,0c-4.4,35.5-27,42.9-27,67.6C20,83.6,32.8,96,48,96
		s28-12.4,28-27.6c0-1.4-0.1-2.7-0.2-4c2.7,0.9,5.6,1.4,8.6,1.4c15.2,0,28-12.4,28-27.6c0-24.7-22.6-32-27-67.6
		C85.3-30,84.8-30.3,84.4-30.3z M79.5,7.8c0.5,0,1,0.2,1.3,0.7c0.3,0.4,0.4,0.9,0.3,1.4c-0.3,1.1-0.6,2.2-0.9,3.4
		c-2,7.1-4.3,15.2-4.3,24.5c0,5.1-3,6.9-5.8,6.9c-0.9,0-1.7-0.2-2.4-0.5c-1.1-1.7-2.2-3.4-3.4-5.2c0,0,0-0.1,0-0.1
		c0-11,5.3-18.2,10-24.6c1.5-2,2.9-3.9,4-5.7C78.6,8,79,7.8,79.5,7.8L79.5,7.8z M43.2,38.1c0.5,0,1,0.2,1.3,0.7
		c0.3,0.4,0.4,0.9,0.3,1.4c-0.3,1.1-0.6,2.2-0.9,3.4c-2,7.1-4.3,15.2-4.3,24.5c0,5.1-3,6.9-5.8,6.9c-3.2,0-5.8-2.6-5.8-5.8
		c0-11,5.3-18.2,10-24.6c1.5-2,2.9-3.9,4-5.7C42.2,38.3,42.7,38,43.2,38.1z"/>
</g>
<g id="g12384" transform="translate(0,416)">
</g>
<g id="g12386" transform="translate(0,416)">
</g>
<g id="g12388" transform="translate(0,416)">
</g>
<g id="g12390" transform="translate(0,416)">
</g>
<g id="g12392" transform="translate(0,416)">
</g>
<g id="g12394" transform="translate(0,416)">
</g>
<g id="g12396" transform="translate(0,416)">
</g>
<g id="g12398" transform="translate(0,416)">
</g>
<g id="g12400" transform="translate(0,416)">
</g>
<g id="g12402" transform="translate(0,416)">
</g>
<g id="g12404" transform="translate(0,416)">
</g>
<g id="g12406" transform="translate(0,416)">
</g>
<g id="g12408" transform="translate(0,416)">
</g>
<g id="g12410" transform="translate(0,416)">
</g>
<g id="g12412" transform="translate(0,416)">
</g>
<g id="g12382-8" transform="matrix(3.9491449,0,0,3.9491449,77.288503,3.5262844)">
</g>
<g id="g10040" transform="matrix(0.3550018,0,0,0.3550018,364.89512,324.4987)">
	<g id="g4869" transform="translate(-0.51307786,-0.54237293)">
		<g id="g4867">
			<path id="path4865" inkscape:connector-curvature="0" class="st1" d="M400.3,175.6c-1.4-3-4.4-4.9-7.7-4.9H291.4l99.8-157.6
				c1.7-2.6,1.8-6,0.3-8.7C390,1.7,387.1,0,384,0H247.5c-3.2,0-6.2,1.8-7.6,4.7l-128,256c-1.3,2.6-1.2,5.8,0.4,8.3
				c1.6,2.5,4.3,4.1,7.3,4.1h87.7l-95.6,227.1c-1.6,3.9-0.2,8.4,3.4,10.6c1.4,0.8,2.9,1.3,4.4,1.3c2.4,0,4.9-1,6.5-3l273.1-324.3
				C401.2,182.2,401.7,178.6,400.3,175.6z"/>
		</g>
	</g>
</g>
<g id="g11064" transform="translate(0,1.5193162)" class="st2">
	<g id="g12382-8-3" transform="translate(-35.227536,31.00435)">
		<path id="path12380-9-7" inkscape:connector-curvature="0" sodipodi:nodetypes="ccsssc" class="st3" d="M185,99.4
			c-0.5-4.2-7.5-4.2-8,0C159.5,239.8,70.4,268.7,70.4,366.3c0,60.3,50.6,109.1,110.6,109.1s110.6-48.9,110.6-109.1
			C291.5,268.7,202.4,239.8,185,99.4z"/>
	</g>
	<path id="path12380-9-7-2" inkscape:connector-curvature="0" sodipodi:nodetypes="ccsssc" class="st3" d="M292.8,8
		c-0.5-4.2-7.5-4.2-8,0c-17.4,140.4-106.6,169.3-106.6,266.8c0,60.3,50.6,109.1,110.6,109.1s110.6-48.9,110.6-109.1
		C399.4,177.3,310.3,148.4,292.8,8z"/>
</g>
<rect id="rect842" x="0.5" y="-0.5" inkscape:export-filename="C:\Users\micha\OneDrive\2ii\Icons\Technologies\HydroCap.png" inkscape:export-xdpi="95.812866" inkscape:export-ydpi="95.812866" class="st4" width="512" height="512">
</rect>
</svg>
