<?xml version="1.0" encoding="utf-8"?>
<!-- Generator: Adobe Illustrator 21.0.2, SVG Export Plug-In . SVG Version: 6.00 Build 0)  -->
<svg version="1.1"
	 id="Capa_1" inkscape:export-filename="C:\Users\micha\OneDrive\2ii\Icons\Technologies\ICE.png" inkscape:export-xdpi="95.812866" inkscape:export-ydpi="95.812866" inkscape:version="0.92.3 (2405546, 2018-03-11)" sodipodi:docname="AutomotiveICE.svg" xmlns:cc="http://creativecommons.org/ns#" xmlns:dc="http://purl.org/dc/elements/1.1/" xmlns:inkscape="http://www.inkscape.org/namespaces/inkscape" xmlns:rdf="http://www.w3.org/1999/02/22-rdf-syntax-ns#" xmlns:sodipodi="http://sodipodi.sourceforge.net/DTD/sodipodi-0.dtd" xmlns:svg="http://www.w3.org/2000/svg"
	 xmlns="http://www.w3.org/2000/svg" xmlns:xlink="http://www.w3.org/1999/xlink" x="0px" y="0px" viewBox="0 0 512 512"
	 style="enable-background:new 0 0 512 512;" xml:space="preserve">
<style type="text/css">
	.st0{fill:#F76261;}
	.st1{opacity:0.2;}
	.st2{opacity:0.1;}
	.st3{fill:#FFFFFF;}
	.st4{fill:none;stroke:#FFFFFF;stroke-opacity:0;}
</style>
<sodipodi:namedview  bordercolor="#666666" borderopacity="1" gridtolerance="10" guidetolerance="10" id="namedview26061" inkscape:current-layer="Capa_1" inkscape:cx="209.03827" inkscape:cy="216.53737" inkscape:pagecheckerboard="true" inkscape:pageopacity="0" inkscape:pageshadow="2" inkscape:window-height="1875" inkscape:window-maximized="1" inkscape:window-width="3000" inkscape:window-x="-13" inkscape:window-y="-13" inkscape:zoom="2.0101873" objecttolerance="10" pagecolor="#ffffff" showgrid="false">
	</sodipodi:namedview>
<path id="path26020" class="st0" d="M222.5,124.8c-1.4,0-2.8,0-4.2,0c-61.1,1.3-101.8,9.7-123.7,14.2c-8.5,1.8-14.6,1.7-17.7,3
	c-1.5-0.1-2.1-0.2-2.8-0.2c-4.2,0-6.7,1.9-8,3.5c-2.8,3.4-2.9,8.4-2.3,12.4c-1.6,1.6-5.3,4.6-8.4,7.1
	c-12.7,10.3-19.6,18.7-24.9,25.4c-0.3,1-0.6,1.2-0.6,1.2c-0.8,0-1.3-0.1-1.8-0.1c-0.8-0.1-1.6-0.2-2.4-0.2c-8,0-10.4,7.8-11.5,13.6
	c-1.6,8.4-2.3,18-3.1,26.6c-0.8,9.6-1.7,20.6-3.4,23.3c-3.3,5.2-8,29.5,1.2,47.4c5.4,10.5,14.6,17,27,19c-0.2-1.4-0.3-2.8-0.4-4.3
	c-0.1-1-0.2-2-0.2-3c0-0.4,0.1-0.8,0.1-1.2c0.6-28.4,23.9-51.2,52.4-51.2c28.9,0,52.4,23.5,52.4,52.4c0,1-0.1,1.9-0.1,2.8
	c-0.1,1.4-0.2,2.7-0.4,4c-0.2,1.4-0.4,2.7-0.6,4c64.5,1.6,147.9,3.5,213.3,4.9c-0.4-1.3-0.7-2.7-1.1-4.1c-0.3-1.3-0.5-2.7-0.7-4
	c-0.4-2.5-0.6-5.1-0.6-7.7c0-28.9,23.5-52.4,52.4-52.4s52.4,23.5,52.4,52.4c0,3.4-0.3,6.7-1,9.8c-0.3,1.4-0.6,2.7-0.9,4
	c-0.4,1.4-0.8,2.7-1.3,4c4.7,0.1,7.3,0.1,7.6,0.2c-0.2,0,5,0.7,12,0.7c21.8,0,34.7-6.6,37.4-19.1l0.1-0.9v-47.1l-0.9-1.1
	c0,0-1.9-2.7-2.7-9.4c-1-8.4-7.5-15.5-11.5-18.4c-1.8-6.2-11.3-22.1-61.3-31.9c-35.2-6.9-46.8-11.1-50.4-12.9L380,190
	C377.2,187.3,309.4,125.1,222.5,124.8z M182.6,164.9h60.2c1.7,0,3.1,0.6,4.3,1.9c1.1,1.2,1.7,2.7,1.7,4.4v40.5h1.7
	c7.2,0,12.3,1.6,15.1,4.8c3,3.2,4.1,8.8,3.1,16.8c-0.4,4.8-1.6,11.5-3.7,20.3c-2.3,10.1-3.3,17-3.1,20.8c0.8,13.3,6.2,20,16.3,20
	c11.2,0,16.8-6.9,16.8-20.8c0-7.6-2-16.4-6-26.2l-0.9-2.3c-1.9-4.8-2.9-11.8-3.1-21.1c-0.4-10.8,0.4-19.7,2.3-26.5
	c0.8-2.9,1.9-5.5,3.4-8c1.5-2.5,3-4.5,4.4-6c1.4-1.5,3.9-3.8,7.3-6.8l2-1.7l5.7,6.6l-2.3,1.7c-0.6,0.6-1.6,1.5-3,2.7
	c-1.4,1.2-2.4,2.1-3,2.7c1.9,1.7,3.3,3.9,4.1,6.7c0.9,2.8,1.3,7.2,1.3,13.3v1.4c0,1.1,0,2.5,0.1,4.1c0.1,1.6,0.2,2.7,0.3,3.1
	s0,1.3-0.1,2.4c-0.8,3.6-2.8,5.4-6,5.4c-1.3,0-3.9,0.1-7.7,0.3c0.2,7.4,0.9,12.8,2.3,16.3l0.9,2.3c4.4,11,6.6,20.9,6.6,29.7
	c0,9.3-2.2,16.6-6.7,21.8c-4.5,5.2-10.7,7.8-18.7,7.8c-7.4,0-13.3-2.5-17.7-7.4c-4.4-4.9-6.8-11.9-7.1-20.8
	c-0.4-4.8,0.7-12.6,3.1-23.4c1.9-8.4,3.1-14.8,3.7-19.4c0.6-5.1,0.2-8.5-1.1-10c-1.1-1.1-4-1.7-8.6-1.7h-1.7v79h-73V171.2
	c0-1.7,0.7-3.2,2.1-4.4S180.9,164.9,182.6,164.9z M184.6,176.6v38.2h55.6v-38.2H184.6z M296.4,195.7c-0.2,0.4-0.4,1-0.6,2
	c-0.2,0.9-0.3,1.6-0.3,2c-1.3,5.1-2.1,10.7-2.3,16.8h6c0-0.6-0.1-1.6-0.3-3.1c-0.2-1.5-0.3-2.7-0.3-3.4v-1.4
	C298.7,201.4,297.9,197.1,296.4,195.7z"/>
<path id="path26022" inkscape:connector-curvature="0" class="st0" d="M443.2,331.6c-6.8,15.7-22.5,26.7-40.7,26.7
	c-18.9,0-35-11.8-41.4-28.4c-0.5-1.3-1-2.7-1.3-4.1c-0.4-1.3-0.7-2.7-0.9-4.1c-0.4-2.5-0.7-5.2-0.7-7.8c0-24.5,19.9-44.4,44.4-44.4
	c24.5,0,44.4,19.9,44.4,44.4c0,3.3-0.4,6.6-1.1,9.7c-0.3,1.4-0.6,2.7-1.1,4C444.2,329,443.7,330.3,443.2,331.6L443.2,331.6z"/>
<path id="path26024" inkscape:connector-curvature="0" class="st0" d="M130.9,324.6c-4.8,19.3-22.2,33.7-43,33.7
	c-21.8,0-39.8-15.7-43.6-36.4c-0.2-1.3-0.4-2.7-0.6-4.1c-0.1-1.3-0.2-2.6-0.2-4c0,0,0-0.1,0-0.1c0-24.5,19.9-44.3,44.4-44.3
	c24.5,0,44.4,19.9,44.4,44.4c0,0.9-0.1,1.8-0.1,2.6c-0.1,1.4-0.2,2.7-0.4,4C131.5,322,131.2,323.3,130.9,324.6L130.9,324.6z"/>
<g id="g26030" transform="translate(0,179.93701)">
</g>
<g id="g26032" transform="translate(0,179.93701)">
</g>
<g id="g26034" transform="translate(0,179.93701)">
</g>
<g id="g26036" transform="translate(0,179.93701)">
</g>
<g id="g26038" transform="translate(0,179.93701)">
</g>
<g id="g26040" transform="translate(0,179.93701)">
</g>
<g id="g26042" transform="translate(0,179.93701)">
</g>
<g id="g26044" transform="translate(0,179.93701)">
</g>
<g id="g26046" transform="translate(0,179.93701)">
</g>
<g id="g26048" transform="translate(0,179.93701)">
</g>
<g id="g26050" transform="translate(0,179.93701)">
</g>
<g id="g26052" transform="translate(0,179.93701)">
</g>
<g id="g26054" transform="translate(0,179.93701)">
</g>
<g id="g26056" transform="translate(0,179.93701)">
</g>
<g id="g26058" transform="translate(0,179.93701)">
</g>
<g id="g28796" transform="matrix(1.5203526,0,0,1.5203526,72.732909,-374.32317)" class="st1">
	<g id="g28794">
	</g>
</g>
<g id="g28796-2" transform="matrix(1.5203526,0,0,1.5203526,72.733496,-374.3229)" class="st2">
	<g id="g28794-3">
		<path id="path28792-0" inkscape:connector-curvature="0" class="st3" d="M154.6,366.7l1.5-1.1l-3.8-4.3l-1.3,1.1
			c-2.3,2-3.8,3.5-4.8,4.5s-1.9,2.3-2.9,3.9c-1,1.6-1.8,3.4-2.3,5.3c-1.3,4.5-1.8,10.3-1.5,17.5c0.1,6.1,0.8,10.8,2.1,13.9l0.6,1.5
			c2.6,6.5,3.9,12.3,3.9,17.3c0,9.1-3.7,13.7-11.1,13.7c-6.6,0-10.2-4.4-10.7-13.1c-0.1-2.5,0.6-7.1,2.1-13.7
			c1.4-5.8,2.2-10.2,2.4-13.3c0.6-5.3-0.1-8.9-2.1-11.1c-1.9-2.1-5.2-3.2-9.9-3.2h-1.1v-26.6c0-1.1-0.4-2.1-1.1-2.9
			c-0.8-0.8-1.7-1.2-2.8-1.2H72.3c-1.1,0-2.2,0.4-3.1,1.2c-0.9,0.8-1.4,1.8-1.4,2.9v84.4h48v-52h1.1c3,0,4.9,0.4,5.6,1.1
			c0.9,1,1.1,3.2,0.8,6.6c-0.4,3-1.2,7.3-2.4,12.8c-1.6,7.1-2.3,12.3-2.1,15.4c0.3,5.9,1.8,10.4,4.7,13.7c2.9,3.3,6.8,4.9,11.6,4.9
			c5.3,0,9.4-1.7,12.3-5.2s4.4-8.2,4.4-14.4c0-5.8-1.4-12.3-4.3-19.5l-0.6-1.5c-0.9-2.3-1.4-5.8-1.5-10.7c2.5-0.1,4.2-0.2,5.1-0.2
			c2.1,0,3.4-1.2,3.9-3.6c0.1-0.8,0.2-1.3,0.1-1.6s-0.1-1-0.2-2.1c-0.1-1.1-0.1-2-0.1-2.7v-0.9c0-4-0.3-6.9-0.8-8.7
			c-0.6-1.8-1.5-3.3-2.7-4.4c0.4-0.4,1-1,2-1.8C153.6,367.7,154.3,367.1,154.6,366.7L154.6,366.7z M110.2,387.5H73.6v-25.1h36.6
			V387.5z M145.1,388.7c0.1-4,0.6-7.7,1.5-11.1c0-0.3,0.1-0.7,0.2-1.3c0.1-0.6,0.3-1.1,0.4-1.3c1,0.9,1.5,3.7,1.5,8.4v0.9
			c0,0.5,0.1,1.3,0.2,2.3c0.1,1,0.2,1.7,0.2,2.1L145.1,388.7z"/>
	</g>
</g>
<rect id="rect842" x="0.5" y="-0.5" class="st4" width="512" height="512"/>
</svg>
