<?xml version="1.0" encoding="utf-8"?>
<!-- Generator: Adobe Illustrator 21.0.2, SVG Export Plug-In . SVG Version: 6.00 Build 0)  -->
<svg version="1.1"
	 id="SVGRoot" inkscape:export-filename="C:\Users\micha\OneDrive\2ii\Icons\Technologies\nuclearcap.png" inkscape:export-xdpi="95.440773" inkscape:export-ydpi="95.440773" inkscape:version="0.92.3 (2405546, 2018-03-11)" sodipodi:docname="nuclearcap.svg" xmlns:cc="http://creativecommons.org/ns#" xmlns:dc="http://purl.org/dc/elements/1.1/" xmlns:inkscape="http://www.inkscape.org/namespaces/inkscape" xmlns:rdf="http://www.w3.org/1999/02/22-rdf-syntax-ns#" xmlns:sodipodi="http://sodipodi.sourceforge.net/DTD/sodipodi-0.dtd" xmlns:svg="http://www.w3.org/2000/svg"
	 xmlns="http://www.w3.org/2000/svg" xmlns:xlink="http://www.w3.org/1999/xlink" x="0px" y="0px" viewBox="0 0 512 512"
	 style="enable-background:new 0 0 512 512;" xml:space="preserve">
<style type="text/css">
	.st0{opacity:0.3;}
	.st1{fill:#F76261;}
	.st2{fill:#F76261;stroke:#FFF5F5;stroke-width:4.12;}
	.st3{fill:none;stroke:#FFFFFF;stroke-width:2.7542;stroke-opacity:0;}
	.st4{fill:none;stroke:#FFF5F5;stroke-width:10.3001;}
	.st5{fill:none;stroke:#FFFFFF;stroke-width:0.2532;stroke-opacity:0;}
</style>
<sodipodi:namedview  bordercolor="#666666" borderopacity="1.0" id="base" inkscape:current-layer="layer1" inkscape:cx="162.72349" inkscape:cy="304.7298" inkscape:document-units="px" inkscape:pagecheckerboard="true" inkscape:pageopacity="0.0" inkscape:pageshadow="2" inkscape:window-height="1875" inkscape:window-maximized="0" inkscape:window-width="3000" inkscape:window-x="-32000" inkscape:window-y="-32000" inkscape:zoom="1.4142136" pagecolor="#ffffff" showgrid="false">
	</sodipodi:namedview>
<g id="g4869" transform="translate(6.5084746,-0.54237293)" class="st0">
	<g id="g4867">
	</g>
</g>
<g>
	<path id="path10676-9" inkscape:connector-curvature="0" class="st1" d="M254.3,0.4c-33.6,0-62.2,42.8-79.1,117.6
		c-7.6-2.3-15.3-4.5-22.8-6.3c0-0.3,0.1-0.6,0.1-0.9c-0.1-17.2-13.1-31.7-30.3-33.5c-17.1-1.9-33,9.4-36.8,26.2
		c-31.7,1.7-45.5,13.9-51.5,24.3c-16.9,29.1,5.9,75.3,62.2,127.3c-56.4,52-79.1,98.2-62.3,127.3c16.8,29.1,68.1,32.5,141.4,9.8
		c0.9,4,1.7,7.9,2.8,11.9c-13.3,7.6-19.8,23.3-15.9,38.1c4,14.8,17.4,25.1,32.7,25.1c2.2,0,4.3-0.3,6.4-0.7
		c15.1,28.1,33.3,43.1,53,43.1c33.6,0,62.2-42.7,79.1-117.5c28.8,8.9,54.2,13.8,75.4,14.7l8.5-16.9c-21.4,0.2-49-4.6-80.4-14.5
		c4.2-22.4,7.2-44.9,8.8-67.6c18.8-12.7,36.9-26.5,54.1-41.4c22.6,20.7,39.7,40.8,50.5,58.5c0.5-0.4,1.1-0.6,1.8-0.6h17.5
		c-10.9-20.9-30.1-44.4-57-69.2c4.6-4.2,9-8.4,13-12.4c4.8,2.5,10.1,3.9,15.5,3.9c13.3,0,25.3-7.7,30.8-19.7c5.5-12,3.6-26.2-5-36.3
		c18.1-31.7,14.4-51.5,7.9-62.8c-9.5-16.4-29.9-24.7-59.1-24.7c-28,0.9-55.7,5.9-82.3,14.9C316.5,43.1,288,0.4,254.3,0.4z
		 M254.3,17.4c24.1,0,48.5,41.3,62.9,105.9c-21.4,7.5-42.5,16.2-62.9,26.2c-20.4-9.9-41.4-18.6-62.9-26.2
		C205.8,58.7,230.2,17.4,254.3,17.4z M118.6,93.8c9.4,0,17,7.6,17,17c0,1.7-0.2,3.3-0.7,4.9c-2.4,7.9-10.1,12.9-18.3,11.9
		c-8.2-1-14.4-7.9-14.8-16.1c0-0.3,0-0.6-0.1-0.9C101.7,101.2,109.3,93.8,118.6,93.8L118.6,93.8z M417.6,120.1
		c21.4,0.3,36.4,5.6,42.4,16c5.8,10,3.2,25.7-7.2,44.6v0.1c-13.8-5.3-29.4-1-38.5,10.6c-9.1,11.6-9.7,27.7-1.4,39.9h-0.1
		c-3.9,3.9-8.3,8.1-13,12.3c-17.2-14.9-35.3-28.7-54.1-41.4c-1.7-22.7-4.6-45.3-8.8-67.6C368.4,124.7,396.2,119.9,417.6,120.1
		L417.6,120.1z M86.1,120.2c3.7,13,14.9,22.6,28.4,24.2c13.5,1.6,26.6-4.9,33.4-16.7v0.1c7.8,1.9,15.9,4.2,23.9,6.8
		c-4.2,22.3-7.2,44.9-8.8,67.6c-18.8,12.7-36.9,26.5-54.1,41.4c-48.7-44.8-72.4-86.6-60.3-107.5c6.6-11.4,22.8-15,37.4-15.9
		L86.1,120.2z M188,140.1c15.6,5.5,31.3,11.9,47.1,19.1c-9.2,4.8-18.4,9.8-27.5,15c-9.3,5.4-18.2,10.7-26.6,16.2
		C182.7,172.8,185.1,156,188,140.1L188,140.1z M320.6,140.1c3,16,5.3,32.7,7,50.3c-8.5-5.4-17.3-10.9-26.7-16.2
		c-9.1-5.2-18.3-10.2-27.4-15C289.3,151.9,305.1,145.6,320.6,140.1L320.6,140.1z M254.3,168.4c12.7,6.4,25.6,13.2,38.2,20.5
		c13.1,7.6,25.4,15.2,36.8,22.9c0.9,14.7,1.4,29.3,1.4,43.3c0,14-0.5,28.6-1.4,43.3c-11.4,7.6-23.7,15.3-36.8,22.9
		c-12.6,7.3-25.5,14.1-38.2,20.5c-12.7-6.4-25.6-13.2-38.2-20.5c-13.1-7.6-25.4-15.3-36.8-22.9c-0.8-14.7-1.4-29.3-1.4-43.3
		c0-14,0.5-28.6,1.4-43.3c11.4-7.6,23.7-15.3,36.8-22.9C228.8,181.6,241.6,174.7,254.3,168.4L254.3,168.4z M441.3,195.6
		c3.5,0.1,6.9,1.2,9.8,3.3c4.4,3.2,7,8.2,6.9,13.6c0,9.4-7.6,17-17,17c-9.3-0.1-16.9-7.6-17-17c0-6.4,3.6-12.2,9.3-15.1
		C435.9,196.2,438.6,195.6,441.3,195.6L441.3,195.6z M346.9,223.7c14.4,10.2,27.7,20.6,40.1,31.3c-12.3,10.6-25.7,21.1-40.1,31.2
		c0.5-10.6,0.8-21.1,0.8-31.2C347.7,244.8,347.4,234.3,346.9,223.7L346.9,223.7z M161.8,223.7c-0.5,10.6-0.8,21.1-0.8,31.2
		c0,10.2,0.3,20.7,0.8,31.3c-14.4-10.2-27.7-20.6-40.1-31.3C134,244.4,147.4,233.9,161.8,223.7L161.8,223.7z M108.9,266.3
		c17.2,14.9,35.3,28.7,54.1,41.4c1.7,22.7,4.6,45.3,8.8,67.6c-63.1,19.8-111.1,19.3-123.2-1.6C36.5,352.9,60.2,311.1,108.9,266.3
		L108.9,266.3z M181,319.6c8.5,5.4,17.3,10.9,26.6,16.2c9.1,5.2,18.3,10.2,27.5,15c-15.8,7.2-31.5,13.6-47.1,19.1
		C185.1,353.9,182.7,337.1,181,319.6L181,319.6z M327.6,319.6c-1.7,17.5-4,34.3-7,50.2c-15.6-5.5-31.3-11.9-47.1-19.1
		c9.2-4.8,18.4-9.8,27.5-15C310.3,330.4,319.2,325.1,327.6,319.6z M254.3,360.5c20.5,9.9,41.5,18.7,62.9,26.2
		c-14.4,64.6-38.8,105.9-62.9,105.9c-12.7,0-26-11.8-37.7-33.3h-0.1c11-9.1,15.2-24.2,10.3-37.6c-4.8-13.5-17.6-22.4-31.9-22.4
		c-0.2,0-0.4,0-0.6,0c-1.1-4.2-1.9-8.4-2.9-12.6C212.9,379.2,233.9,370.4,254.3,360.5z M479.7,367.7L468,386.2h4.2
		c0.9-1.2,1.8-2.5,2.6-3.9C477.3,377.8,479,372.9,479.7,367.7z M194.9,416.2c9.4,0,17,7.6,17,17c0,6.7-3.9,12.7-10,15.4
		c-2.2,1-4.6,1.6-7,1.6c-8.4-0.1-15.5-6.4-16.6-14.8c-1.1-8.3,4.1-16.2,12.2-18.5C192,416.4,193.5,416.2,194.9,416.2z"/>
	<g id="g10674-3" transform="matrix(-0.93754824,0,0,-0.93754824,463.62579,507.74236)">
		<path id="path10666-3" inkscape:connector-curvature="0" class="st1" d="M51.2,314.9c0,15-12.2,27.2-27.2,27.2
			c-15,0-27.2-12.2-27.2-27.2c0-15,12.2-27.2,27.2-27.2C39.1,287.8,51.2,300,51.2,314.9z"/>
		<path id="path10668-2" inkscape:connector-curvature="0" class="st1" d="M395.1,423.6c0,15-12.2,27.2-27.2,27.2
			c-15,0-27.2-12.2-27.2-27.2c0-15,12.2-27.2,27.2-27.2C383,396.4,395.1,408.6,395.1,423.6z"/>
		<path id="path10670-3" inkscape:connector-curvature="0" class="st1" d="M313.7,79.6c0,15-12.2,27.2-27.2,27.2
			c-15,0-27.2-12.2-27.2-27.2s12.2-27.2,27.2-27.2C301.5,52.5,313.7,64.6,313.7,79.6z"/>
		<path id="path10672-6" inkscape:connector-curvature="0" class="st1" d="M268.4,269.7c0,25-20.3,45.3-45.3,45.3
			c-25,0-45.3-20.3-45.3-45.3s20.3-45.3,45.3-45.3C248.2,224.4,268.4,244.7,268.4,269.7z"/>
	</g>
	<g id="g4869-0" transform="translate(6.5084746,-0.54237293)">
		<g id="g4867-8">
			<path id="path4865-1" inkscape:connector-curvature="0" class="st2" d="M501,388.5c-0.5-1.1-1.6-1.8-2.8-1.8h-36.7l36.2-57.2
				c0.6-1,0.6-2.2,0.1-3.2c-0.5-1-1.6-1.6-2.7-1.6h-49.6c-1.2,0-2.2,0.7-2.8,1.7l-46.5,92.9c-0.5,1-0.4,2.1,0.1,3
				c0.6,0.9,1.6,1.5,2.6,1.5h31.9l-34.7,82.5c-0.6,1.4-0.1,3,1.2,3.8c0.5,0.3,1.1,0.5,1.6,0.5c0.9,0,1.8-0.4,2.4-1.1l99.1-117.7
				C501.3,390.9,501.5,389.6,501,388.5z"/>
		</g>
	</g>
</g>
<rect id="rect842" x="0.5" y="-2.5" inkscape:export-filename="C:\Users\micha\OneDrive\2ii\Icons\Technologies\NuclearCap.png" inkscape:export-xdpi="95.812866" inkscape:export-ydpi="95.812866" class="st3" width="512" height="512">
</rect>
<g id="g10837-9" transform="matrix(0.32093888,0,0,0.32093888,357.20827,344.16294)">
	<g id="g4869-1" transform="translate(6.5084746,-0.54237293)" class="st0">
		<g id="g4867-9">
		</g>
	</g>
	<g id="g4869-0-3" transform="translate(6.5084746,-0.54237293)" class="st0">
		<g id="g4867-8-0">
			<path id="path4865-1-8" inkscape:connector-curvature="0" class="st4" d="M461.8,137c-1.6-3.4-5-5.6-8.7-5.6H338.7L451.6-46.9
				c1.9-3,2-6.7,0.3-9.8c-1.7-3.1-4.9-5-8.5-5H288.9c-3.7,0-7,2.1-8.6,5.3L135.5,233.3c-1.5,3-1.3,6.5,0.4,9.4
				c1.8,2.8,4.9,4.6,8.2,4.6h99.3L135.2,504.2c-1.8,4.4-0.2,9.5,3.9,12c1.6,1,3.3,1.4,5,1.4c2.8,0,5.5-1.2,7.4-3.4l308.9-366.8
				C462.9,144.4,463.4,140.4,461.8,137z"/>
		</g>
	</g>
</g>
<g id="g12382-8-3-3" transform="matrix(3.9491449,0,0,3.9491449,95.282265,0.35422855)">
	
		<rect id="rect842-6" x="-24" y="-0.2" inkscape:export-filename="C:\Users\micha\OneDrive\2ii\Icons\Technologies\HydroCap.png" inkscape:export-xdpi="95.812866" inkscape:export-ydpi="95.812866" class="st5" width="129.6" height="129.6">
	</rect>
</g>
</svg>
